Sun Nov 29 11:37:05 CET 2015: Sensor turned on
Sun Nov 29 11:37:05 CET 2015: Sensor returned value 0.0
Sun Nov 29 11:37:06 CET 2015: Sensor updated
Sun Nov 29 11:37:06 CET 2015: Sensor returned value 57.2752497524442
Sun Nov 29 11:37:06 CET 2015: Sensor updated
Sun Nov 29 11:37:06 CET 2015: Sensor returned value 60.950928280537354
Sun Nov 29 11:37:06 CET 2015: Sensor updated
Sun Nov 29 11:37:06 CET 2015: Sensor returned value 20.680242514815905
